The Adam Smith Problem: Tidytext in R - Dilettanting Data Science
…
Revealing that project gutenberg has no “Theory of the moral Sentiments” :). Let’s download the text from here.

wealth <- gutenberg_download(gutenberg_id = 3300) %>% 
  select(-gutenberg_id) %>% 
  mutate(chapter = cumsum(str_detect(text, regex("^chapter [\\divxlc]",
                                                 ignore_case = TRUE))),
         title = "Wealth of Nations")

## Determining mirror for Project Gutenberg from http://www.gutenberg.org/robot/harvest

## Using mirror http://aleph.gutenberg.org

wealth

## # A tibble: 35,202 x 3
##    text                                              chapter title        
##    <chr>                                               <int> <chr>        
##  1 AN INQUIRY INTO THE NATURE AND CAUSES OF THE WEA…       0 Wealth of Na…
##  2 ""                                                      0 Wealth of Na…
##  3 ""                                                      0 Wealth of Na…
##  4 By Adam Smith                                           0 Wealth of Na…
##  5 ""                                                      0 Wealth of Na…
##  6 ""                                                      0 Wealth of Na…
##  7 ""                                                      0 Wealth of Na…
##  8 ""                                                      0 Wealth of Na…
##  9 INTRODUCTION AND PLAN OF THE WORK.                      0 Wealth of Na…
## 10 ""                                                      0 Wealth of Na…
## # ... with 35,192 more rows

theory <- read_file("../../data/3189.txt") %>% 
  data_frame(text = .) %>% 
    mutate(text = strsplit(text, "\n")) %>% 
    unnest(text) %>% 
    mutate(title = "The Theory of Moral Sentiments",
           chapter = cumsum(str_detect(text, regex("^Chap. [\\divxlc]",
                                                 ignore_case = TRUE))))
theory

## # A tibble: 830 x 3
##    text                                               title        chapter
##    <chr>                                              <chr>          <int>
##  1 The Theory of Moral Sentiments                     The Theory …       0
##  2 by                                                 The Theory …       0
##  3 Adam Smith                                         The Theory …       0
##  4 Professor of Moral Philosophy in the University o… The Theory …       0
##  5 Part I                                             The Theory …       0
##  6 Of the Propriety of Action Consisting of Three Se… The Theory …       0
##  7 Section I                                          The Theory …       0
##  8 Of the Sense of Propriety                          The Theory …       0
##  9 Chap. I                                            The Theory …       1
## 10 Of Sympathy                                        The Theory …       1
## # ... with 820 more rows
…
